<?xml version="1.0" standalone="no"?>
<!DOCTYPE svg PUBLIC "-//W3C//DTD SVG 1.1//EN" "http://www.w3.org/Graphics/SVG/1.1/DTD/svg11.dtd">
<svg xmlns="http://www.w3.org/2000/svg">
<metadata>Generated by Fontastic.me</metadata>
<defs>
<font id="nlsg-icons-thin" horiz-adv-x="512">
<font-face font-family="nlsg-icons-thin" units-per-em="512" ascent="480" descent="-32"/>
<missing-glyph horiz-adv-x="512" />

<glyph glyph-name="check" unicode="&#111;" d="M481 420l16-15-323-323-165 165 16 16 149-150z"/>
</font></defs></svg>
